Exploration de données textuelles avec R
…
xyz$doc_id <- 1:nrow(xyz)

Problème 3. Repérer les colonnes inutiles et les éliminer

# La première colonne semble contenir une information redondante. Vérifions:
unique(xyz[ , "periodique"])  # ou table(xyz$periodique)

# A tibble: 1 × 1
  periodique                  
  <chr>                       
1 XYZ. La revue de la nouvelle

unique(xyz[, "numero"])       # ou table(xyz$numero)

# A tibble: 24 × 1
   numero
   <chr> 
 1 121   
 2 122   
 3 123   
 4 124   
 5 125   
 6 126   
 7 127   
 8 128   
 9 129   
10 130   
# … with 14 more rows

unique(xyz[, "theme"])        # ou table(xyz$theme)

# A tibble: 28 × 1
   theme                                                                    
   <chr>                                                                    
 1 Jardin : un enfer de morceaux de paradis                                 
 2 Tarot : des destins tout tracés ?                                        
 3 Récompenses : onze nouvelles sur le podium                               
 4 Thème libre                                                              
 5 Séductions : entre flirt, désir, charme, fantasme, chavirement et mystère
 6 Hors-frontières                                                          
 7 Nouvelle d'une plage : à l'écart du tourisme de masse                    
 8 Ponctuation : signe que les mots ne peuvent pas tout dire                
 9 Concours de nouvelles XYZ                                                
10 Le double : l'autre, c'est moi                                           
# … with 18 more rows
…
Test de corrélation avec des données textuelles

Pour faire un test de corrélation avec des données textuelles, il faut créer des variables numériques qui seront mises en relation. Les chaines de caractères ne peuvent pas, telles quelles, être corrélées. Il faut choisir une mesure liée à la question de recherche. On prendra ici un exemple très simple et assez futile, simplement pour indiquer le processus.

Nous allons vérifier s’il y a une corrélation, positive ou négative, entre la longueur des titres et la longueur des textes. Comme mesure, nous pouvons utiliser le nombre de mots que comportent les titres et les textes, ou encore le nombre de caractères de chaque variable. Nous allons retenir cette dernière option par souci de simplicité. Les sommes de caractères pour chaque titre et chaque texte sera faite avec la fonction de base nchar().

xyz$ncharTitre <- nchar(xyz$titre)
xyz$ncharTexte <- nchar(xyz$texte)

# Observons le résultat dans la table
xyz[, c("ncharTitre", "ncharTexte")]

# A tibble: 321 × 2
   ncharTitre ncharTexte
        <int>      <int>
 1          8       5234
 2          8       8474
 3         27       4660
 4          8       7350
 5         20       9140
 6          6      10346
 7         27      10672
 8          7      18760
 9          9       5716
10         18       3790
# … with 311 more rows
…
